…
**3.1. How many unique locations are included in the dataset?**

There are **404** unique locations are included in the dataset.

**3.2. Is every state represented?**

**Yes**. Because **51** states including DC is represented.

**3.3. What state is observed the most?**

``` r
brfss_data %>% count(locationabbr) %>% arrange(desc(n))
```

    ## # A tibble: 51 x 2
    ##    locationabbr     n
    ##    <chr>        <int>
    ##  1 NJ             146
    ##  2 FL             122
    ##  3 NC             115
    ##  4 WA              97
    ##  5 MD              90
    ##  6 MA              79
    ##  7 TX              71
    ##  8 NY              65
    ##  9 SC              63
    ## 10 CO              59
    ## # ... with 41 more rows
…
